{
   "UNN":"S1679607",
   "newStudent":[
      {
         "status":"New student",
         "programme":"MPH Public Health (Online Distance Learning) - 3 Years",
         "entryYear":"2016/7 entry",
         "workflow":[
            {
               "title":"Unconditional offer accepted",
               "status":"complete",
               "statusCode":"UF",
               "tooltip":"You have accepted our unconditional offer",
               "supportText":""
            },
            {
               "title":"Get started as a student",
               "status":"complete",
               "statusCode":"ATR",
               "tooltip":"You have started to get ready for your studies",
               "supportText":""
            },
            {
               "title":"New student",
               "status":"process_action",
               "tooltip":"",
               "supportText":"Your programme has started, but there are still outstanding matriculation tasks you need to complete before you are a fully matriculated student. Please complete the matriculation tasks below.\n\nOnce you have completed all matriculation tasks, you will see the 'student' view of MyEd."
            }
         ],
         "tasks":[
            {
               "title":"Matriculation: confirm your attendance",
               "url":"NextWorkflowStep",
               "supportText":"Confirm your attendance on your programme by logging in to your virtual learning environment and making contact with your personal tutor.",
               "status":"open"
            },
            {
               "title":"Matriculation: register as a student",
               "url":"http://www.euclid.ed.ac.uk",
               "supportText":"",
               "status":"complete"
            },
            {
               "title":"Activate your student email account",
               "url":"http://www.ed.ac.uk/students/new-students",
               "supportText":"",
               "status":"complete"
            },
            {
               "title":"Set up VPN access",
               "url":"www.ed.ac.uk/is/vpn",
               "supportText":"",
               "status":"complete"
            },
            {
               "title":"Apply for a student card",
               "url":"http://www.ed.ac.uk/students/new-students",
               "supportText":"",
               "status":"complete"
            }
         ],
         "information":[
            {
               "title":"New student web site",
               "url":"http://www.ed.ac.uk/students/new-students",
               "supportText":"Learn more about starting as a student and the steps and timeline for becoming a fully matriculated student."
            },
            {
               "title":"Preparing for study",
               "url":"http://www.ed.ac.uk/students/new-students/student-support/preparing-for-study",
               "supportText":"Even before the semester begins you can start learning and preparing for your new role as a student at the University."
            },
            {
               "title":"Student fees and other tuition costs",
               "url":"http://www.ed.ac.uk/finance/students/fees/distance-learning",
               "supportText":"Several options and methods for payment of fees are available. Once you have decided how to pay your fees, use the online distance learning programme (DLP) mandate form to arrange payment for Distance Learning Programme fees."
            }
         ],
         "links":[
            {
               "title":"After you apply",
               "url":"http://http://www.ed.ac.uk/studying/postgraduate/degrees/index.php?r=site/view&id=844",
               "supportText":"Find out more about what happens after you apply"
            },
            {
               "title":"Fees and Finance",
               "url":"http://www.ed.ac.uk/studying/postgraduate/fees-finance",
               "supportText":"Details of our tuition fees and additional costs associated with studying, as well as the scholarships and funding available to help you pursue your ambitions"
            },
            {
               "title":"Programme information",
               "url":"http://http://www.ed.ac.uk/studying/postgraduate/degrees/index.php?r=site/view&id=844",
               "supportText":"Learn more about your programme on the degree finder"
            },
            {
               "title":"Using the library",
               "url":"http://www.ed.ac.uk/information-services/library-museum-gallery/using-library/library-services-odl",
               "supportText":"The Library has access to a wide range services for distance learning students, including e-resources such as e-journals, e-books, databases, which you can use to help with your studies. "
            },
            {
               "title":"Support for online learners",
               "url":"http://www.ed.ac.uk/studying/postgraduate/degree-guide/online-learning",
               "supportText":"Find out more about the support we offer online learners"
            },
            {
               "title":"Edinburgh University Students' Association",
               "url":"https://www.eusa.ed.ac.uk/",
               "supportText":"EUSA will help you get the most out of your time at the University"
            }
         ]
      }
   ]
}
