{
   "UNN":"S1677858",
   "applications":[
      {
         "status":"You have withdrawn your application",
         "programme":"MSc Clinical Education (Online Distance Learning) - 3 Years",
         "entryYear":"2016/7 entry",
         "workflow":[

         ],
         "tasks":[

         ],
         "information":[
            {
               "title":"About withdrawn applications",
               "url":"",
               "supportText":"We only accept one application per programme/entry year and do not accept duplicate applications. If you wish to reapply, please contatc your admissions team to discuss your options. "
            },
            {
               "title":"Programme information",
               "url":"http://www.myed.ed.ac.uk",
               "supportText":"Learn more about your programme on the degree finder"
            }
         ],
         "links":[
            {
               "title":"After you apply",
               "url":"http://http://www.ed.ac.uk/studying/postgraduate/degrees/index.php?r=site/view&id=246",
               "supportText":"Find out more about what happens after you apply"
            },
            {
               "title":"Fees and Finance",
               "url":"http://www.ed.ac.uk/studying/postgraduate/fees-finance",
               "supportText":"Details of our tuition fees and additional costs associated with studying, as well as the scholarships and funding available to help you pursue your ambitions"
            },
            {
               "title":"Programme information",
               "url":"http://http://www.ed.ac.uk/studying/postgraduate/degrees/index.php?r=site/view&id=246",
               "supportText":"Learn more about your programme on the degree finder"
            },
            {
               "title":"Support for online learners",
               "url":"http://www.ed.ac.uk/studying/postgraduate/degree-guide/online-learning",
               "supportText":"Find out more about the support we offer online learners"
            },
            {
               "title":"Edinburgh University Students' Association",
               "url":"https://www.eusa.ed.ac.uk/",
               "supportText":"EUSA will help you get the most out of your time at the University"
            }
         ]
      }
   ]
}